{
	"artifacts" : 
	[
		{
			"path" : "tp1pt3"
		}
	],
	"backtrace" : 1,
	"backtraceGraph" : 
	{
		"commands" : 
		[
			"add_executable"
		],
		"files" : 
		[
			"CMakeLists.txt"
		],
		"nodes" : 
		[
			{
				"file" : 0
			},
			{
				"command" : 0,
				"file" : 0,
				"line" : 8,
				"parent" : 0
			}
		]
	},
	"compileGroups" : 
	[
		{
			"compileCommandFragments" : 
			[
				{
					"fragment" : "-g  "
				},
				{
					"fragment" : "-std=gnu++11"
				}
			],
			"language" : "CXX",
			"sourceIndexes" : 
			[
				0
			]
		}
	],
	"id" : "tp1pt3::@6890427a1f51a3e7e1df",
	"link" : 
	{
		"commandFragments" : 
		[
			{
				"fragment" : "-g",
				"role" : "flags"
			},
			{
				"fragment" : "",
				"role" : "flags"
			}
		],
		"language" : "CXX"
	},
	"name" : "tp1pt3",
	"nameOnDisk" : "tp1pt3",
	"paths" : 
	{
		"build" : ".",
		"source" : "."
	},
	"sourceGroups" : 
	[
		{
			"name" : "Source Files",
			"sourceIndexes" : 
			[
				0
			]
		}
	],
	"sources" : 
	[
		{
			"backtrace" : 1,
			"compileGroupIndex" : 0,
			"path" : "main.cpp",
			"sourceGroupIndex" : 0
		}
	],
	"type" : "EXECUTABLE"
}
