{
	"configurations" : 
	[
		{
			"directories" : 
			[
				{
					"build" : ".",
					"minimumCMakeVersion" : 
					{
						"string" : "3.5"
					},
					"projectIndex" : 0,
					"source" : ".",
					"targetIndexes" : 
					[
						0
					]
				}
			],
			"name" : "Debug",
			"projects" : 
			[
				{
					"directoryIndexes" : 
					[
						0
					],
					"name" : "tp1pt2",
					"targetIndexes" : 
					[
						0
					]
				}
			],
			"targets" : 
			[
				{
					"directoryIndex" : 0,
					"id" : "tp1pt2::@6890427a1f51a3e7e1df",
					"jsonFile" : "target-tp1pt2-Debug-57f5ed1a10bc2a143d96.json",
					"name" : "tp1pt2",
					"projectIndex" : 0
				}
			]
		}
	],
	"kind" : "codemodel",
	"paths" : 
	{
		"build" : "/home/ubuntu/Documents/eicnam/c++/build-tp1pt2-Desktop-Debug",
		"source" : "/home/ubuntu/Documents/eicnam/c++/tp1pt2"
	},
	"version" : 
	{
		"major" : 2,
		"minor" : 0
	}
}
